Proj2_BoneMed
…
view(bonemed_2)

#How many unique values does phy_id hold and what is the number of levels. Max unique = 11 with so many that are 1. Few instances of this will not help our model so we drop this column.
#For better generalization it was decided to remove the site_id

nlevels(phy_id) #127 levels is too many to contain useful number of unique observations for the model. Physicians are part of a site so blocking for 'site_id' should be sufficient.

## [1] 127

bonemed_2 %>% group_by(phy_id, fracture) %>% summarise(n = n()) %>%  arrange(desc(n)) 

## `summarise()` regrouping output by 'phy_id' (override with `.groups` argument)

## # A tibble: 184 x 3
## # Groups:   phy_id [127]
##    phy_id fracture     n
##    <fct>  <fct>    <int>
##  1 294    No          11
##  2 27     No           9
##  3 301    No           9
##  4 309    No           9
##  5 37     No           8
##  6 287    No           8
##  7 295    No           8
##  8 313    No           8
##  9 284    No           7
## 10 296    Yes          7
## # ... with 174 more rows
…
